﻿50-21-244$ПРОКЛАДКА $5,00
Кат-40-5019$ПРОКЛАДКА $56,00
50-21-245$ПРОСТАВКА $60,00
24-22-5$ПРОСТАВКА$96,80
50-50-60$ПРОТЕКТОР$700,00
700-38-2568$ПРУЖИНА$74,00
700-38-2752$ПРУЖИНА$57,50
50-19-201$СЕГМЕНТ  $1 246,30