;наименование заказчика;чод заказчика;
;наименование заказчика;чод заказчика;
;наименование заказчика;чод заказчика;
;наименование заказчика;чод заказчика;
;наименование заказчика;чод заказчика;
;наименование заказчика;чод заказчика;
;наименование заказчика;чод заказчика;
;наименование заказчика;чод заказчика;
;наименование заказчика;чод заказчика;
;наименование заказчика;чод заказчика;
;наименование заказчика;чод заказчика;
;наименование заказчика;чод заказчика;
;наименование заказчика;;
;наименование заказчика;чод заказчика;
;наименование заказчика;чод заказчика;
;наименование заказчика;чод заказчика;
;наименование заказчика;чод заказчика;
;наименование заказчика;чод заказчика;
;наименование заказчика;чод заказчика;
;наименование заказчика;чод заказчика;
;наименование заказчика;чод заказчика;
;наименование заказчика;чод заказчика;
;наименование заказчика;чод заказчика;
;наименование заказчика;чод заказчика;
;наименование заказчика;чод заказчика;
;наименование заказчика;чод заказчика;
;наименование заказчика;чод заказчика;
;наименование заказчика;чод заказчика;
;наименование заказчика;чод заказчика;
;наименование заказчика;чод заказчика;
;наименование заказчика;чод заказчика;
;наименование заказчика;чод заказчика;
;наименование заказчика;чод заказчика;
;наименование заказчика;чод заказчика;
;наименование заказчика;чод заказчика;
;наименование заказчика;чод заказчика;
;наименование заказчика;чод заказчика;
;наименование заказчика;чод заказчика;
;наименование заказчика;чод заказчика;
;наименование заказчика;чод заказчика;
;наименование заказчика;чод заказчика;
;наименование заказчика;чод заказчика;
;наименование заказчика;чод заказчика;
;наименование заказчика;чод заказчика;
;наименование заказчика;чод заказчика;
;наименование заказчика;чод заказчика;
;наименование заказчика;чод заказчика;
;наименование заказчика;чод заказчика;
;наименование заказчика;чод заказчика;
;наименование заказчика;чод заказчика;
;наименование заказчика;чод заказчика;
;наименование заказчика;чод заказчика;
;наименование заказчика;чод заказчика;
;наименование заказчика;чод заказчика;
;наименование заказчика;чод заказчика;
;наименование заказчика;чод заказчика;
;наименование заказчика;чод заказчика;
;наименование заказчика;чод заказчика;
;наименование заказчика;чод заказчика;
;наименование заказчика;чод заказчика;
;наименование заказчика;чод заказчика;
;наименование заказчика;чод заказчика;
;наименование заказчика;чод заказчика;
;наименование заказчика;чод заказчика;
;наименование заказчика;чод заказчика;
;наименование заказчика;чод заказчика;
;наименование заказчика;чод заказчика;
;наименование заказчика;чод заказчика;
;наименование заказчика;чод заказчика;
;наименование заказчика;чод заказчика;
;наименование заказчика;чод заказчика;
;наименование заказчика;чод заказчика;
;наименование заказчика;чод заказчика;
;наименование заказчика;чод заказчика;
;наименование заказчика;чод заказчика;
;наименование заказчика;чод заказчика;
;наименование заказчика;чод заказчика;
;наименование заказчика;чод заказчика;
;наименование заказчика;чод заказчика;
;наименование заказчика;чод заказчика;
;наименование заказчика;чод заказчика;
;наименование заказчика;чод заказчика;
;наименование заказчика;чод заказчика;
;наименование заказчика;чод заказчика;
;наименование заказчика;чод заказчика;
;наименование заказчика;чод заказчика;
;наименование заказчика;чод заказчика;
;наименование заказчика;чод заказчика;
;наименование заказчика;чод заказчика;
;наименование заказчика;чод заказчика;
;наименование заказчика;чод заказчика;
;наименование заказчика;чод заказчика;
;наименование заказчика;чод заказчика;
;наименование заказчика;чод заказчика;
;наименование заказчика;чод заказчика;
;наименование заказчика;чод заказчика;
;наименование заказчика;чод заказчика;
;наименование заказчика;чод заказчика;
;наименование заказчика;чод заказчика;
;наименование заказчика;чод заказчика;
;наименование заказчика;чод заказчика;
;наименование заказчика;чод заказчика;
;наименование заказчика;чод заказчика;
;наименование заказчика;чод заказчика;
;наименование заказчика;чод заказчика;
;наименование заказчика;чод заказчика;
;наименование заказчика;чод заказчика;
;наименование заказчика;чод заказчика;
;наименование заказчика;чод заказчика;
;наименование заказчика;чод заказчика;
;наименование заказчика;чод заказчика;
;наименование заказчика;чод заказчика;
;наименование заказчика;чод заказчика;
;наименование заказчика;чод заказчика;
;наименование заказчика;чод заказчика;
;наименование заказчика;чод заказчика;
;наименование заказчика;чод заказчика;
;наименование заказчика;чод заказчика;
;наименование заказчика;чод заказчика;
;наименование заказчика;чод заказчика;
;наименование заказчика;чод заказчика;
;наименование заказчика;чод заказчика;
;наименование заказчика;чод заказчика;
;наименование заказчика;чод заказчика;
;наименование заказчика;чод заказчика;
;наименование заказчика;чод заказчика;
;наименование заказчика;чод заказчика;
;наименование заказчика;чод заказчика;
;наименование заказчика;чод заказчика;
;наименование заказчика;чод заказчика;
;наименование заказчика;чод заказчика;
;наименование заказчика;чод заказчика;
;наименование заказчика;чод заказчика;
;наименование заказчика;чод заказчика;
;наименование заказчика;чод заказчика;
;наименование заказчика;чод заказчика;
;наименование заказчика;чод заказчика;
;гусеница 5ти каткова, с закрытым шарниром, для песченых грунтов (для работы в абразивной среде);ГМ-10СП;
;0;А24-22-1СБ;
;Кольца уплотнительные;740.1002024 (40210);
;Поршневая группа;Д-160-01-1101(ф150);
;трубка;2218;
;0;50-14-23;
;0;50-14-26;
;подшипник;42314К;
;р/к вод насоса;Р/К 16-08-140СП;
;0;РВД гайка+гайка 32;
;0;РВД гайка+гайка 32;
;0;РВД гайка+гайка 32;
;0;РВД гайка+гайка 32;
;0;РВД гайка+гайка 32;
;болт М20*1,5*62+гайка (башмачный);0;
;ЭФМ-011-1 элемент фильтрующий;0;
;А41.10.000-02 ФП207.1-01 фильтр патрон;0;
;А41.20.000-01 ФП207.1-01 фильтр патрон;0;
;50-18-117СП лента тормоза;0;
;0;24-22-1СП;
;3.Фильтр воздушный 10 шт.;0;
;Фильтр воздушный – 10 шт.;0;
;0;20-21-64;
;Генератор 14V Г1000В.10.1;Г1000В.10.1;
;Стартер (ПД-23) СТ62.3708;СТ62.3708;
;Плита 24-21-сб120;24-21-сб120;
;Пластина 18-14-143;18-14-143;
;Пластина 18-14-144;18-14-144;
;ПОДШИПНИК 92.255 (украина);;
;ПОДШИПНИК 92.256 (турбодизель);;
;РОТОР 92.550 (украина);;
;РОТОР 92.550 (турбодизель);;
;МАНЖЕТА 75Х100;;
;ПРОКЛАДКА 700-40-7399СП;;
;ПРОКЛАДКА ПОД ГОЛОВКУ БЛОКА 51-02-107-01СП;;
;ПРОКЛАДКА ПОД ТКР-11 700-40-2754СП;;
;КАРБЮРАТОР  К125Л(Вебер);;
;ФАРА ФГ-318 (ФГ761.3711);;
;ПЛАСТИНА 18-14-122;;
;БОЛТ 700-28-2509;16137;
;ГИДРОРАСПРЕДЕЛИТЕЛЬ Р160-3/1-111  (Т-130, Т-170);;
;ГИДРОРАСПРЕДЕЛИТЕЛЬ Р160-3/1-111  (Т-130, Т-170);;
;ВТУЛКА 50-13-26;;
;СЕРВОМЕХАНИЗМ 21-17-4СП;;
;МАСЛОПРИЕМНИК 51-09-150СП;;
;КОЛЬЦО 46587-1;;
;КРЫШКА 24-19-1;;
;ПОРШЕНЬ 50-21-14;;
;ШТОК 24-21-92;;
;БОЛТ ГОСТ7796-70 М20Х50.88.35.019;;
;БОЛТ БАШМАЧНЫЙ М20Х1.5Х62;;
;ГАЙКА БАШМАЧНАЯ(М20Х1.5) 30326-1;;
;Рукав ВД М42*2.0 s50 25*2510 4SH;;
;Рукав ВД М27*1.5 s32 16*910-2SN(2к) DK ;;
;Рукав ВД М27*1.5 s32 16*1710-2SN DK (2гр);;
;ФИЛЬТР РЕГОТМАС 635-1-06 (М5305М);;
;БОЛТ М8Х45.88.019;;
;Комплект (гильза,поршень) Д160-1000101 ;;
;Комплект (гильза,поршень) Д160-01-1000101 ;;
;Палец поршневой ЧТЗ 16-03-50 Д-160(145мм);;
;ГАЙКА ГОСТ5915-70 (М8Х20) М8.6Н.019;;
;МЕХАНИЗМ НАТЯЖЕНИЯ 50-21-134СП;;
;КОЛЬЦО КН 50Х70-2;;
;КОЛЬЦО МЕДНОАСБЕСТОВОЕ 53Х65 40927СП;;
;БОЛТ ГОСТ 7796-70 М8Х35.88.35.019;;
;БОЛТ М8Х45.88.019;;
;СЕРДЦЕВИНА ВОД. РАДИАТОРА 130У.13.020;;
;КРЫШКА РАДИАТОРА ТИП2 Г15964-70 А21.05.480СП;;
;УКАЗАТЕЛЬ ТЕМПЕРАТУРЫ ВОДЫ УК143А-3807010;;
;ПОДКОС 80-52-105СП;;
;НОЖ СРЕДНИЙ (18 отв.) 80-52-61-01;;
;Опора шаровая ДЗ-110В.00.00;;
;Подшипник ШСЛ-70;;
;Подшипник ШС-60К(ШСЛ) (на ГМП БелАЗ 30 тонн);;
;СВЕЧА М8Т1 (м18);;
;СВЕЧА ЗАЖИГАНИЯ НА ПД-23 А-11;;
;ТУРБОКОМПРЕССОР ТКР11Н3   92.000-06 Мелитополь;;
;ГУСЕНИЦА 50-22-9СП(24-22-1СП);;
;КАТОК ОДНОБОРТНЫЙ КАТ-21-169СП Б;;
;КАТОК ДВУБОРТНЫЙ КАТ-21-170СП Б;;
;БОЛТ СМД8-194 М6-6ДХ1;;
;ВТУЛКА 24-21-42;;
;РЕМКОМПЛЕКТ ГИДРОЦИЛИНДРА 18-26-270СП;;
;КОЛЬЦО У100Х95;;
;КОЛЬЦО УПЛОТНИТЕЛЬНОЕ 111.30.123.01 (Украина);;
;КОЛЬЦО УПЛОТНИТЕЛЬНОЕ 111.30.123.01 (Россия);;
;ФИЛЬТР-ПАТРОН А41.10.000-02СП (В4308М) основной;;
;ФИЛЬТР-ПАТРОН А41.10.000-01СП (В4308-01М) малый;;
;ПРОКЛАДКА  60-10165.00;;
;ВКЛЮЧАТЕЛЬ "МАССЫ"  ВК318Б У-ХЛ;;
;ПРОВОД 19 50-10-279СП;;
;ГИДРОЦИЛИНДР 50-26-570СП;18-26-270СП;
;ВЫКЛЮЧАТЕЛЬ ВК-862 (856);;
;БОЛТ 700-28-2173;;
;БОЛТ БАШМАЧНЫЙ М16Х1,5;;
;ГАЙКА БАШМАЧНАЯ  М16Х1,5;;
;Комплект колец порш. 160-01-1004002 150мм;;
;ЦЕНТРИФУГА МАСЛ.95.000СП;;
;0;700-28-2527/2316/2625;
;0;КАТ-21-416Б;
;Болт башмачный М20х1,5x62.019 Т-170;М20х1,5x62;
;Канат стальной ф19,5 ГОСТ-2688-80;0;
;Гайка 30326 М20х 1,5;30326;
;Лента тормозная в сборе 18360-01 СП Т-170;18360-01;
;Фильтр-патрон 51-05-310СП Т-170;51-05-310СП;
;Рукав ВД Ду-12-1,10 (ключ 27 М22х1,5);0;
;Рукав РВД Ду16 (ключ 32, М27х1.5) 1450мм;0;
;Рукав РВД К24 М20х1.5 (1450мм);0;
;Рукав РВД К=32 М24х1,5 (1010) 12x1050-32;0;
;Рукав РВД К24 М20х1,5 (1810);0;
;болт;700-28-25;
;гайка;30326;
;вкладыш;21927;
;втулка;14-02-30-3;
;генератор;7006.3701.000;
;кольцо;740.1002024;
;лист;20-20-32;
;механизм натяжения;50-21-134СП;
;насос;НМШ-25-00-00;
;подшипник;118;
;привод насоса;16-09-149СП;
;прокладка;700-40-2253;
;рессора на б/х;20-20-117СП;
;реле регулятор напряжениятрактора т170, 
;;
;комбайны Дон (24В);2412.3702;
;вкладыши коренные; р3;
;комплект поршневых колец (D-150);51-03-130СП;
;цепь болотная;0;
;Генератор Т-130М,170,ЧТЗ с дв.Д-140,160,180 24V 40А 1.0кВт  Г996.3701/Г1000В.10.1;3701;
;Цепь гусеничная серийная Т-130,Т-170 (лента);50-22-103СП;
;Гильза,поршень Д-160 м/к d=145 (Кострома);Д160-1000101;
;Подшипник   iso: NJ314ECJ;П*42314 КМ;
;Подшипник   iso: NJ415/С3;П*42415 КM;
;Подшипник   iso: NJ2312ECJ;П*42612 КМ;
;Бендикс в сборе Т-130,Т-170;Т-3708;
;0;24-22-1СП/2СП;
;0;50-21-132;
;0;М20*1,5 болт крепления катка;
;0;канат D-18мм;
;0;50-26-702СП;
;Набор прокладок ДВС Д-160;0;
;Набор прокладок бортовой пер. Д-160;0;
;Поршневая группа в сборе   Д-160;0;
;Сальник коленвала  ДВС Д-160 ( передн);0;
;Сальник коленвала  ДВС Д-160 (задн);0;
;подшипник;70-42612 КМ;
;Подшипник 120;0;
;Гидроцилиндр;50-50-225СП;
;Каток поддерживающий;50-21-416СП;
;Ножи отвала правые  Т-170;0;
;Ножи отвала левые Т-170;0;
;Цепь гусеничная в сборе (38 звеньев);48-22-102СП;
;Рукав с защитой;64-26-27-01СП;
;Радиатор маслянный;64-09-131-30;
;Радиатор маслянный;130У.09.012;
;Счетчик моточасов /вольтметр УК 34.2;0;
;Болт М20*1,5*62;0;
;Гайка;30326-1;
;Термостат;ТС-107-130.6100-02;
;Лента тормозная;50-18-116СП;
;Лента тормозная;50-18-117СП;
;Стартер ;251.3708.000;
;Подшипник;118;
;Подшипник;407;
;Подшипник;307;
;Подшипник;308;
;Подшипник;306;
;Подшипник;304А;
;Подшипник;8205;
;Подшипник;8104;
;Подшипник;203;
;Подшипник;180308УС9;
;Подшипник;311А;
;Подшипник;170311А1;
;Подшипник;312А;
;Подшипник;111;
;Подшипник;402311К;
;0;18-26-270СП;
;пружина натяжителя;0;
;кожух сцепления нижний;0;
;лезвие отвала;0;
;нож угловой;0;
;0;000.4859.105.000СП;
;0;0;
;0;64-16-1;
;0;46587-1;
;0;М10*700.58.019;
;0;64-60-232СП;
;Фильтр возд;А41.10.00-02;
;Фильтр масл ЭФМ-011;50-26-490СП;
;Кран;КР-12Д;
;Карбюратор;11.1107011;
;Кожух крепления стартера;75.24.112-2;
;Стартер ПД10;Сг 362.3708;
;0;700-47-2132 ;
;Кольца поршневыепд-23   2 компл;0;
;КОРОНКА ЗУБА РЫХЛИТЕЛЯ Т-330;КОРОНКА;
;24-22-1СП ЛЕНТА ГУСЕНИЧНАЯ;24-22-1СП;
;18-14-17-1(18-14-77-7) ВАЛ КАРДАННЫЙ;18-14-17-1(18-14-77-7);
;210.12.11.001Г ГИДРОМОТОР;210.12.11.001Г;
;24-19-31 КОРПУС ПОДШИПНИКА;24-19-31;
;7326СП ХОМУТ ДВИГАТЕЛЯ;7326СП;
;18-14-126 МУФТА;18-14-126;
;700-40-2047 ПАТРУБОК;700-40-2047;
;Д65-24-СО 1-4 ПУСКОВОЙ ДВИГАТЕЛЬ ПД-10У СО СТАРТЕРОМ;Д65-24-СО;
;Крышка;37-26-134;
;Крышка;37-26-133;
;Сухарь;26866;
;Сфера;26865;
;Болт М10-6gx75.58.019;0;
;Упор ;37-26-126;
;Крышка;26859;
;Клапан;37-26-207СП;
;Палец;Д515С.02.067;
;Палец;ДЗ-27С.01.004;
;Палец;ДЗ-110АХЛ.01.008;
;Шайба  48.02.01;0;
;Прокладка;261255;
;Кольцо;700-40-6082(700-40-6093);
;Крышка;37-26-134;
;Крышка;37-26-133;
;Сухарь;26866;
;Сфера;26865;
;Болт М10-6gx75.58.019;0;
;Упор ;37-26-126;
;Крышка;26859;
;Клапан;37-26-207СП;
;Установка вентилятора;16-07-5СП;
;Установка шторки;18-08-18СП;
;Стяжка;50-20-32;
;Кран;48-26-115СП;
;Кран;18-26-290СП;
;Труба;50-56-121СП;
;Труба;18-56-113СП;
;Труба;21-09-115СП;
;Труба;50-60-202СП;
;Шайба  48.02.01;0;
;Прокладка;261255;
;Поршень;37-26-208СП;
;Кольцо;700-40-6082(700-40-6093);
;0;0;
;0;0;
;0;0;
;0;0;
;16-07-5СП (старого образца);Установка вентилятора;
;0;0;
;кольцо (входит в шкив 65-07-112СП);16-03-03;
;подшипник (входит в шкив 65-07-112СП);306;
;пружина (входит в шкив 65-07-112СП);700-38-5354;
;масленка;1,3 Ц6;
; Коробка передач ДЗ-98 10.04.000 КПП ДЗ-98 10.04.000 1шт;0;
;ось тр-12 на лебедку (система управления);700-47-2152;
;КОРОНКА ЗУБА РЫХЛИТЕЛЯ Т-330;0;
;НАСОС ПОДКАЧКИ (Д-144, Т-40, Д-240);0;
;ПАРА ПЛУНЖЕРНАЯ (Д-144, Т-40);0;
;2501-19-75   СЕКТОР  ЗУБЧАТЫЙ    Т-25;0;
;2501-21-15СП   КАТОК  ПОДДЕРЖИВАЮЩИЙ    Т-25;0;
;2501-22-1СП  ГУСЕНИЦА    Т-25;0;
;ТМ2501-21-38СП(SP)  КОЛЕСО  НАТЯЖНОЕ  ПРАВОЕ  УХЛ  Т-25;0;
;ТМ2501-21-38-01 СП(SP)  КОЛЕСО  НАТЯЖНОЕ  ЛЕВОЕ  УХЛ  Т-25;0;
;Т25-21-001СП  КАТОК  ОПОРНЫЙ УХЛ (ДВУБОРТНЫЙ) Т-25;0;
;Т25-21-001-01СП  КАТОК  ОПОРНЫЙ УХЛ (ОДНОБОРТНЫЙ) Т-25;0;
;403-21-15СП Каток поддерживающий;0;
;011501-93-21-01 НОЖ УГЛОВОЙ;0;
;011501-93-22-01 НОЖ СРЕДНИЙ;0;
;011501-93-23-01 НОЖ СРЕДНИЙ;0;
;S1A6155T51A1L1HA    НАСОС ГИДРОСИСТЕМЫ Т-15;0;
;011501-93-21 НОЖ УГЛОВОЙ ПРАВЫЙ;0;
;3501-93-22-01 НОЖ УГЛОВОЙ ПРАВЫЙ;0;
; 3501-93-22 НОЖ УГЛОВОЙ ЛЕВЫЙ;0;
;46-98-190СП КОРОНКА НАКОНЕЧНИКА;0;
;2501-98-190-20СП НАКОНЕЧНИК;0;
;Т35-21-000СП  КАТОК ОПОРНЫЙ ДВУБОРТНЫЙ;0;
;Т35-21-000-01  КАТОК ОПОРНЫЙ ОДНОБОРТНЫЙ;0;
;НАКЛАДКА ЗУБА  3501-98-188;0;
;2501-12-20СП КОРОБКА ПЕРЕДАЧ ПЛАНЕТАРНАЯ;0;
;1 поддерживающий (сказал Г-образный нового образца);0;
;6 втулок;0;
;интересует на Б-11 фрикцион правый в сборе, 
;;
;сервомеханизм большой ,
;;
; все подшипники на бортовую, 
;;
;ремкомплект(все резинки, кольца, манжеты, прокладки и т.п);;
;интересует на Б-11 фрикцион правый в сборе, 
;;
;сервомеханизм большой ,
;;
; все подшипники на бортовую, 
;;
;ремкомплект(все резинки, кольца, манжеты, прокладки и т.п);18360-01;
;0;0;
;0;0;
;0;0;
;подшипники на бортовую правую;0;
;0;0;
;0;0;
;0;0;
;0;0;
;0;0;
;0;0;
;0;0;
;0;0;
;0;0;
;0;0;
;Колесо натяжное правое в сборе ;50-21-305-02;
;Колесо натяжное левое в сборе ;50-21-306-03;
;Паронит 1 мм;0;
;Цепь 2Пр-25.4-11400;0;
;Манжета 90х120;0;
;Цепь для трактора с семи катковой ходовой;0;
;Болт башмачный с гайкой d20;0;
;АКБ 6 СТ 75;0;
;Провод 2,5 мм;0;
;Подшипник 42415;42415;
;Подшипник 314;314;
;Подшипник 412;412;
;Рем.комплект на опорный каток;0;
;Рем.комплект на направляющий каток;0;
;Генератор 966-3701;0;
;Рем.комплект на водяную помпу;0;
;Шестерня двойная 50-19-3;0;
;ПК-30.44.00.010;0;
;болт башмака 700-28-233;0;
;гайка М20х1,5-5НбН.8.35 ;0;
;контактор мк3-l0 узА.24в;0;
;контактор мк4-10 узА,24в;0;
;контактор мкз-20 узА,24в;0;
;рукав РВД 12-850ХЛ;0;
;Болт 700-28-2492 крепления ножа с гайкой М16        -300шт;700-28-2492;
;Болт 700-28-2517 крепления ножа с гайкой М20    -300шт;700-28-2517;
;Каток поддерживающий 24-21-171СП                              -4шт    ;24-21-171СП;
;Каток поддерживающий 50-21-416СП                           -4шт;50-21-416СП ;
;Болт с гайкой М20Х1,5 (комплект)      - 200шт;0;
;Болт башмачный с гайкой М16х1,5х60      -300шт;0;
;Нож отвала боковой левый (8 отв. ) 80-52-60    -2шт;80-52-60;
;Нож отвала боковой правый (8 отв. ) 80-52-59    -2шт; 80-52-59;
;рокладка ТКР 11 НЗ 700-40-2754             -10шт;700-40-2754;
;Нож отвала средний (7 отв. )                        -10шт;0;
;Шпилька 700-28-2369                                   -50шт;700-28-2369;
;0;24-19-31;
;0;24-19-38;
;0;70-42612КМ;
;Элемент фильтрующий Т-170 51-70-146СП;51-70-146СП;
;Фильтр гидросистемы Т-170 50-26-490СП;50-26-490СП;
;Стартер пускового двигателя Т-170 СТ230Е-3708 000-Т;СТ230Е-3708 000-Т;
;Карбюратор К-125Л;К-125Л;
;Фильтр-патрон Д-160 (к-т) 51-05-310/А-41;А-41;
;Насос НШ-32У-3Л (левый);НШ-32У-3Л;
;РВД Ф-16 L-1110 Н.036.85.770;0;
;РВД Ф-16 L-1500 Н.036.85.810;0;
;Труба 18-56-113СП 18-56-113СП;18-56-113СП;
;РВД Ф-25 L-2510 Н.036.88.750;0;
;Рукав L=390 мм. D 60 42701;0;
;Сапун 17463СП;17463СП;
;Замок 50-59-567СП;50-59-567СП;
;Уплотнитель стекла Т-170 24-59-222;24-59-222;
;Свеча зажигания  ф18 М8Т1;М8Т1;
;Подшипник  (12210К1) ;12210К1;
;Гусеница (4766132757, 4766131146) 2шт.;0;
;Фильтр воздушный                            10 шт.;0;
;Каток поддерживающий Б-10м        4шт.;0;
;Каток опорный двухбортые              6шт.;0;
;Гидрошланги 10шт.;0;
;Прокладка (700-40-4092)6шт.;0;
;Механизм натяжения (50,21,134) 3шт.;0;
;Гидротолкатель 1шт.;0;
;На коробку передач от Т-170:;0;
;Втулка  18-12-61;0;
;А41.10.000-02СП  ФИЛЬТР-ПАТРОН;0;
;ЭФТ-75АМ  ЭЛЕМЕНТ ФИЛЬТРУЮЩИЙ;0;
;Р-635-1.06(БК02.04)(50-26-490)фильтроэлемент масля;0;
;Лента гусеничная 20-22-3СП;0;
;Лента тормозная 50-18-116СП;0;
;Карбюратор 17-05-185СП;0;
;Стартер 12В СТ230Е-3708000-Т;0;
;Генератор 50-10-374СП;0;
;Муфта сцепления 20-14-2СП;0;
;Отопитель кабины 50-47-3СП;0;
;Редуктор бортовой 20-19-118СП;0;
;катки поддерживающие;50-21-416СП;
;катки однобортные;24-21-169СП;
;катки двубортные;24-21-170СП;
;интересует на Б-11 фрикцион правый в сборе, 
;;
;сервомеханизм большой ,
;;
; все подшипники на бортовую, 
;;
;ремкомплект(все резинки, кольца, манжеты, прокладки и т.п);18360-01;
;0;0;
;0;0;
;0;0;
;подшипники на бортовую правую;0;
;0;0;
;0;0;
;0;0;
;0;0;
;0;0;
;0;0;
;0;0;
;Бортовая на Б 10 (подшипники, шестеренки, двойняшки);0;
;0;2.2-100х125-2;
;0;118;
;0;213;
;0;700-40-4092;
;0;700-40-7109;
;0;228А;
;0;50-21-42;
;0;700-30-2017;
;0;19457;
;0;2.2-90х120-2;
;0;1,3Ц6;
;0;3010;
;0;27ОТ65Г09;
;Стартер СТ-230А-3808000;СТ230А-3708000;
;Гусеница болотная Т-170 48-22-7СП;48-22-7СП;
;Гидрораспределитель Р-80 3/1 222;Р-80 3/1 222;
;Распределитель  Р80-3.1.444; Р80-3.1.444;
;Стартер напряжение 12В для трактора 24.3708;74.3708;
;Гусеница 50-22-6сп;50-22-6сп;
;счет на з\ч Т-130 ;0;
;0;0;
;Прокладки к двигателю - все ;0;
;Вал - к-т. 50-14-113СБ;0;
;0;0;
;Пробка радиатора - 1;0;
;Фильтр топливный - 2шт;0;
;Фильтр топливный ХБ - 2шт;0;
;Нож боковой левый-8д.;80-52-59;
;Нож боковой правый-8д.;80-52-60;
;Нож боковой левый-12д.;Д661-02.002.02;
;Лента тормоза;18360-01;
;Пластина;18-14-122;
;Шайба;12 ОТ65Г09;
;Вал-комплект;48-14-101;
;Прокладка;700-40-5259;
;Крышка;20-14-22;
;Вал-комплект;50-14-113;
;Цепь гусеничная ;ЧД-50-22-103СБ;
;Гайка ;30326-2;
;Каток опорный о/б;ЧД-21-169СБ;
;Каток опорный д/б;ЧД-21-170СБ;
;Колесо натяжное левое;50-21-305СБ;
;Колесо натяжное правое;50-21-306СБ;
;Опора колеса натяжного левая;24-21-149 СБ;
;Опора колеса натяжного правая;24-21-148 СБ;
;Гусеница    ;50-22-9сп;
;Ремкомплект турбокомпрессора   ткр 11н-3;0;
;лента;0;
;катки однобортные;0;
;катки двубортные;0;
;гусеница для обычных условий, сухой шарнир;0;
;гусеница сухой шарнир;0;
;Каток поддерживающий;50-21-416СП;
;Цепь;50-22-103СП;
;Цепь;50-22-127-02;
;Палец замыкающий;24-22-7,гм-1-2-01;
;Фильтр маслянный;65-09-123 СП;
;Фильтр топливный ( тонкой );51-70-137СП;
;Фильтр-патрон;А41 10.000-02;
;Фильтр-патрон;А41 20.000-01;
;Элемент фильтр;ЭФМ-011;
;Рукав с  защитой;64-26-27СП;
;Насос;НШ   10У-3Л;
;Прокладка;51-02-32-В;
;АКБ;6СТ – 75 А/Ч.;
;Лампа;А  24-2;
;Лампа;А 24-21 -3;
;Подшипник;70-32417;
;Подшипник;70-32612К;
;Подшипник;213;
;Болт;М20*1.5*62;
;Гайка;30326-1;
;Гайка;30326-1;
;Гайка;700-30-2017;
;Прокладка;51-02-С13;
;Манжета;Кат-40-5378;
;Кольцо;Кат-21-60-03;
;Прокладка;Кат-40-5377;
;Кольцо пружинное;700-58-2571;
;Втулка;50-26-876;
;Поршень;50-26-87;
;Пружина;700-38-2879;
;Проставка;50-26-875;
;Винт;700-35-2177;
;Клапан;50-50-245;
;Втулка;50-26-724;
;Гайка;700-41-3663;
;Кольцо;024-030-36-2-2;
;Уплотнение;Е13М-100-5;
;Кольцо;045-050-30-2-2 т;
;Болт;М10-6g*75.58.019;
;Подшипник;306;
;Подшипник;206;
;Термостат;ТС  107 -1306100-01;
;Клапан;62-12-509;
;Подшипник;312;
;Подшипник;311А;
;Подшипник;50-12-278СП;
;Манжета;2.2-90*120-2;
;Прокладка;700-40-20006СП;
;Кольцо поршневое;СТ-03350;
;Кольцо поршневое;СТ-03351;
;Подшипник;45804;
;Гайка;3013;
;Карбюратор;17-05-188 СП;
;Болт;М 20х1.5х62;
;Вык.карданный ;18-14-77;
;Гайка;30326-1;
;Датчик оборотов индуктивный;IDR 18/20-L400 50MN;
;Джойстик электронный;HG 405 GB /11-S;
;Диск;50-16-111СП;
;Дроссельный потенциометр;WS-1 T90/10;
;Каток поддерживающий;50-21-416СП;
;Колесо натяжное (левое);50-21-305-05СП;
;Колесо натяжное (правое);50-21-306-05СП;
;Котел подогревателя;ПЖД30Е;
;Лента;50-18-116СП;
;Муфта ;20-14-23;
;Насос;НШ 50А-3;
;РВД;d 20 L 1,8 кл.41;
;РВД;d 20 L 2,0 кл.36;
;РВД;d 20 L 2,0 кл.41;
;РВД;d 20 L1,5 кл.36;
;РВД;d 20 L1,5 кл.41;
;РВД;d 25 L -1.0x2,0 кл.50;
;РВД;d 25 L-1,5 х 2,0 кл.50;
;РВД;Н.036.85.070 рукав d-16;
;РВД d 25 L=2,5;50-26-487-09СП;
;РВД выс.давления;d 25 L=2,5;
;Реле регулятора;14В  2402.3702;
;Реле регулятора;28В  2412.3702;
;Сальник;1,2-200*240-14;
;Сальник;40257;
;Сальник;40263;
;Сальник;40967;
;Сальник;40976;
;Сальник;90*120;
;Сальник  (декомпрессора);40857;
;Сальник  (на вентилятор);40805;
;Сальник  коленвала железный;40831СП;
;Сальник (коленвала);40831СП;
;Свеча зажигания;А 11-3;
;Стартер;42.3708.000;
;Стеклоочиститель;6713,5205;
;Указатель тока;АП 111 - Б;
;Фара;761,3711;
;Электродвигатель отопителяТ-170;97.12.3730;
;Двигатель пусковой- ;ПД-10УД;
;ГенераторТ-170;7006.3701.000;
;Ремкомплект водяного насосаТ-130;16-08-141РК;
;Редуктор бортовой левыйТ-130, Т-170;24-19-115СП;
;Вал карданныйТ-170;50-14-23;
;Полуось бортового редуктораТ-100МГ,Т-170,Т-130;20-19-4СП;
;Манжета малого лабиринтаТ-170;700-40-2039СП;
;Рукав высокого давления резиновый 16Х1100Т-170;Н.036.85.770;
;Рукав высокого давления резиновый 25Х2510-16,5МПА Т-130, Т-170;Н.036.88.750;
;Фара основного света трактораТ-130;ФГ761.3711;
;Вставка турбиныТ-130, Т-170;92,203;
;ГенераторТ-130, Т-170;700,3701;
;Прокладка меднаяТ100,Т130,Т170, Д108, Д160;700-40-2253;
;Рукав высокого давленияТ-130;16-1250КЛ32;
;Рукав высокого давленияТ-130;25-1860;
;Рукав высокого давления25Х630-25МПА М42Х2Т-130,170;25-25-630 4У;
;Свеча зажигания Т-130,Т-170;М18Т-1;
;Свеча зажигания искроваяТ-130, Т-170;А11-3;
;Элемент фильтрующий топливныйТ-170,ДТ-75;НФ-307С;
;Б-10МФильтр маслянный турбины ;2108;
;Б-10МФильтр маслянный ;Р635-1-06;
;Б-10МФильтр тонкой очистки ;ЭФ-01-00 СБ;
;Б-10МФильтр ;ФТ-75;
;Б-10МФильтрэлемент воздуш.;ФП 207(больш+малый) в сборе;
;Б-10МЭлемент фильтрующий ;51-70-146СП;
;Б-10МСвеча ;М8Т;
;Б-10МРем. комп. гидроцилиндра ;50-26-570СП;
;Б-10МРем. комплект механизма натяжения ;50-24-420СП;
;Б-10МРем. комплект бортового редуктора;0;
;Б-10МРем. комплект водяного насоса ;16-08-140СП;
;Б-10МРем. комплект прокладок основного двигателя;0;
;Б-10МФара ;ФГ-318;
;Б-10МКарбюратор;К-125Л ;
;Б-10МСтартер ;42.3708.000;
;Б-10МГенератор ;7006 3701 24В;
;Б-10МДатчик температуры воды;ТМ-100;
;Б-10МГидрораспределитель ;Р-160-3/1-111;
;Б-10МНож средний ;80-52-61-01;
;Б-10МПодшипник;176218Б3;
;Б-10МВинт;В.М8х16.14Н019;
;подъем отвала;;
;перекос отвала;;
;подъем рыхлителя;;
;Цепь гусеницы серийная 50-22-102СП;50-22-102СП;
;Болт + гайка башмачный (М20*1,5);0;
;Каток поддерживающий 24-21-171СП;24-21-171СП;
;Р/К Бортового редуктора трактора Т-130, Т-170;0;
;гидрораспределитель;Р160-3/1-111;
;Подшипник;118;
;Стакан;18-14-68;
;Ролик;18-14-69;
;Гайка;М12*1,25-6Н.6А.019;
;Прокладка;700-40-5260;
;Кольцо;18-14-34;
;Вал карданный;18-14-77;
;Муфта;18-14-126;
;Подшипник ;180308;
;Подшипник;46120;
;Р/к опорного катка с подшипниками;0;
;Прокладка бортового редуктора;700-40-4092;
;Поранит;0;
;Прокладка ;700-40-4092;
;Болт;700-28-2098;
;Болт с гайкой башмачный ;24-22-1СП;
;Р/к механизма натяжения;0;
;Рем. комплект гидроцилиндра подъема отвала;50-21-270;
;Насос ;НШ-50-3Л;
;Гидрораспределитель;Р160-3/1-111;
;Рукав высокого давления 11-16 армированный;Н.036.85.750;
;Р/к Р160 полный;0;
;Р/к сервомеханизма;50-15-118СП;
;РВД Ф16 L-1110 Н.036.85.03.170;0;
;РВД на 32;0;
;РВД 11-25 АРМ;0;
;валик реверса;50-12-569;
;Ремень;П-16*11*1650;
;Генератор;7006.3701.000;
;ТКР-11-Н-3;92000-06;
;Свеча зажигания М8Т;0;
;Катушка возбуждения;69.3701-060;
;Блок выпрямителя;БП13 41-10-02;
;Манжета ;2.2-90*120-2;
;Фара    ;ФГ318;
;Датчик указателя давления;ММ-358-Э;
;Выключатель;И607.3710Т;
;Приемник указателя температуры;УК-143-Э;
;Лампа фарная А-24-50 х 40;0;
;Прокладка;40748;
;Манжета;68х92;
;Манжета;90х120;
;Трубка;51-69-108СП;
;Тубка;51-70-121СП;
;Трубка;51-70-124СП;
;Втулка;14-02-30-3;
;Прокладка;700-40-2253;
;Гильза поршень 150 Кострама;150;
;Клапан впускной;14-02-33-В;
;Клапан выпускной;11733;
;Рем. комплект  водяного насоса полный;0;
;Шплинты 2,5х16.019;0;
;Шплинты 2х12.019;0;
;Накладка;700-40-7373ПТ;
;Нож левый;80-52-60;
;нож правый;80-52-59;
;Стартер на ПД;42.3708.000;
;болт крепления ножа + гайка;067.11.12.084 32х10;
;юолт башмачный + гайка;м16х1,5;
;Центрефуга;95.000СП;
;Вал карданный;18-14-77-1;
;Муфта ;18-14-126;
;Цепь гусеничная;50-22-102;
;Полный р/к опорного катка с осью и подшипниками;0;
;Паук (в сборе с дисками);7320СП;
;Генератор (966.3701) 28В;7006.3701.000;
;Гидрораспределитель;Р160-3/1-111;
;НШ 50-2А правый;0;
;Гильза поршень (150) Кострома;0;
;Карбюратор;К125Л;
;Рем. Комплект ТКР 11 Н3 (полный);0;
;5. Гусеница 50-22-9СП – 2 шт.;0;
;8. Стартер 42-3708 – 3 шт.;0;
;9. Фильтр воздушный А41.10.000-02 или А41.20.000-01 – 10 шт.;0;
;гидрораспределитель;Р160-3/1-111(Т);
;насос;НШ-100А-3ЛТ;
;гусеница трактора башм.500мм;50-22-9СП;
;подшипник;2615КМУ;
;генератор;7006.3701000;
;Гидрораспределитель (сервомеханизм управления поворотом);Р 160.000 ВРК ;
;Лента гусеничная Для гусеничного транспортера;50-22-9СП;
;Ремень  вентилятора;16*11*1650;
;Ремень генератора;12,5*9*1090;
;Датчик оборотов индуктивный;IDR 18/20-L400 50MN;
;Дроссельный потенциометр;WS-1 T90/10;
;Джойстик электронный;HG 405 GB /11-S;
;Указатель тока;АП 111 - Б;
;Стартер;42.3708.000;
;Котел подогревателя;ПЖД30Е;
;Каток поддерживающий;50-21-416СП;
;Стеклоочиститель;6713,5205;
;Фара;761,3711;
;Болт;М 20х1.5х62;
;Гайка;30326-1;
;РВД;d 20 L 1,8 кл.36;
;РВД;d 20 L 2,0 кл.36;
;РВД;d 20 L 2,0 кл.41;
;Реле регулятора;14В  2402.3702;
;Реле регулятора;28В  2412.3702;
;Сальник;1,2-200*240-14;
;Сальник;40257;
;Сальник;40263;
;Сальник  (на вентилятор);40805;
;Сальник (коленвала);40831СП;
;Сальник  коленвала железный;40831СП;
;Сальник  (декомпрессора);40857;
;Сальник;40967;
;Сальник;40976;
;Муфта ;20-14-23;
;РВД;Н.036.85.070 рукав d-16;
;штифт 700-32-2250,;700-32-2250;
;хомут;17-73-127СП;
;0;0;
;пружина;3874;
;муфта карданного вала;18-14-126;
;генератор т130;12В 461.3701 Т-130;
;центрифуга т170;95.000;
;щетокодеражитель ((на генератор силовой ГП-222 (на ДЭТ-250М2);5ВЯ.112.001;
;корпус подшипника т100 ((снят с производства на чтз);24-19-31;
;щетка эг2а;2х12,5х40-52;
;эл щетка эг2а;ЭГ-2А 16*32*40;
;нож т 170 боковой ((нужен только левый или 5 левых, 5 правых?);80-52-59;
;муфта;50-14-26;
;Б-10МФильтр маслянный турбины ;2108;
;Б-10МФильтр маслянный ;Р635-1-06;
;Б-10МФильтр тонкой очистки ;ЭФ-01-00 СБ;
;Б-10МФильтр ;ФТ-75;
;Б-10МФильтрэлемент воздуш.;ФП 207(больш+малый) в сборе;
;Б-10МЭлемент фильтрующий ;51-70-146СП;
;Б-10МСвеча ;М8Т;
;Б-10МРем. комп. гидроцилиндра ;50-26-570СП;
;Б-10МРем. комплект механизма натяжения ;50-24-420СП;
;Б-10МРем. комплект бортового редуктора;0;
;Б-10МРем. комплект водяного насоса ;16-08-140СП;
;Б-10МРем. комплект прокладок основного двигателя;0;
;Б-10МФара ;ФГ-318;
;Б-10МКарбюратор;К-125Л ;
;Б-10МСтартер ;42.3708.000;
;Б-10МГенератор ;7006 3701 24В;
;Б-10МДатчик температуры воды;ТМ-100;
;Б-10МГидрораспределитель ;Р-160-3/1-111;
;Б-10МНож средний ;80-52-61-01;
;Б-10МПодшипник;176218Б3;
;Б-10МВинт;В.М8х16.14Н019;
;диск;92570;
;Фильтр-патрон;А41.10.000-02;
;Фильтр-патрон;А41.20.000-01;
;гайка;30326-1;
;Каток поддерживающий;50-21-41 6 СП;
;Каток однобортный;Кат-21-169 СП-Б;
;Каток двубортный;Кат-21-170 СП-Б;
;бендикс в сборе;0;
;кольца на турбину;0;
;;;
;редуктор на ПК65;;
;идет как ЧТЗ-ПК65.11.03.000 Редуктор цена ЧТЗ 225380,00;;
;р/к бортового редуктора, 20 наим.(34 поз.);РТИ+прокладки;
;Гидрораспределитель;Р-160.3/1-111;
;радиатор системы охлаждения дизеля;130У.13.010.1;
;вал карданные;18-1477-1;
;муфта;18-14-126;
;подшипник;70-32612к;
;подшипник;213;
;клапан;5021177;
;втулка;24-22-3;
;гайка башмачная;30326-1;
;каток поддержиавющий;50-21-416СП;
;механизм натяжения;50-21-134СП;
;Д-160 РК двигателя  (58шт)Техно Драйв;р/к Д160;
;Трубка уплотнительная  02218 (бочата);02218;
;Д-160 РК ТНВД+ПР. 01-19-111 2129;0;
;Муфта карданного вала 18-14-126;18-14-126;
;Механизм натяжения  50-21-134сп;50-21-134СП;
;На бульдозер Б10М2-6000ЕН с двигателем ЯМЗ 236 требуется бортовой редуктор с гидротрансформатором в сборе. правый;64-19-116;
;;;
;Свечи на пускач;;
;0;а4110000-02СП;
; 64-19-116-03СП;;
;64-19-116-01СП;;
;Лента цепи (БУЛЬДОЗЕР ЧТЗ Б11Б
;;
;;;
;14.02.1932;впускные и выпускные клапана на Д160;
;14-02-33В;впускные и выпускные клапана на Д160;
;радиатор водянной т 130;;
;башмак т170;50-22-2;
;Диск;50-19-96;
;Диск;20-19-19;
;;;
;0;50-21-416СП;
;Каток поддерживающий;50-21-416СП;
;0;50-08-156-02СП;
;8.Радиатор системы охлаждения дизеля 130у.13.010.1;0;
;Радиатор системы охлаждения дизеля 130у.13.010.1 – 1 шт.;130у.13.010.1 ;
;РАДИАТОР ВОДЯНОЙ 130У.13.010-1СП;;
;радиатор;130У.13-010;
;Б-10МРадиатор ;130У.13.010-1СП;
;6. Радиатор 130У.13.010-1СП водяной Т-170 – 1 шт.;0;
;Радиатор системы охлаждения;50-08-156-01СП;
;Б-10МРадиатор ;130У.13.010-1СП;
;ОСЬ ШЕСТЕРНИ 01463;;
;ШПОНКА СЕГМЕНТНАЯ СТ45-В-Н 700-34-2051;;
;ШПОНКА СЕГМЕНТНАЯ 3Х6,5 ГОСТ 700-34-2014;;
;ТЯГА 80-52-113СП;;
;ВТУЛКА 18-19-19;;
;18-19-19 ВТУЛКА;18-19-19;
;Втулка 18-19-19                                             -50шт;18-19-19;
;Втулка (черн.);18-19-19;
;Втулка (ДЗ-110Б);18-19-19;
;ПРОВОД 22 50-10-294СП;;
;0;ГМ-10-07СП;
;гусеница шарнир со смазкой ;0;
;трк;92.000-06;
;Турбокомпрессор Т-170 ТКР-111Н-3 92.000-06;92.000-06;
;Турбокомпрессор  Т-130/Т-170 ТКР-11 НЗ;ТКР-11 НЗ;
;Турбокомперссор ТКР 8.5С;92.000-06;
;ТКР-11Н3;0;
;ТКР 11 Н3;92000-06;
;ткр;92.000-06;
;Турбокомпрессор (центробежный турбокомпрессор);ТКР 11Н3;
;Турбокомперссор ТКР 8.5С;92.000-06;
;ткр 11нз;0;
;0;50-21-394СП;
;1)64-12-109СП  -  колесо зубчатое  -   1шт.;24-12-109СП;
;Вкладышистандарт  ПД-23 2 комплекта;А23-01-54-130СП;
;ВКЛАДЫШИ ШАТУННЫЕ П-23 СТД, КОМПЛЕКТ;0;
;Поршень пд-23  2 комплекта;03349;
;Поршень;46463;
;поршень Т100;03349;
;манжета (входит в шкив 65-07-112СП);720-15-126СП;
;Манжета;720-15-126 СП;
;    ПРОКЛАДКА; 40944;
;    СВЕЧА ЗАЖИГАНИЯ; М8Т, Т-170 4ШТ;
;4 звена правых;0;
;звено;50-22-8;
;Д-160 Звено гусеницы 50-22-8;50-22-8;
;4 звена левых;0;
;звено;50-22-7;
;Д-160 Звено гусеницы 50-22-7;50-22-7;
;Д-160 Звено гусеницы 50-22-7;50-22-7;
;6 пальцев;0;
;Палец гусеницы 24-22-6                           -4шт;24-22-6;
;Палец гусеницы трактораТ-130, Т-170;24-22-7;
;палец;24-22-6;
;0;0;
;0;0;
;0;0;
;0;0;
;Сальник (бортового редуктора);2,2-100*125-2;
;Б-10ММанжета;2.1-100х125-4;
;Манжета 2.2-100*125-2;0;
;Манжета ;2.2-100*125-2;
;Манжета ;2.2-100*125-2;
;Сальник (бортового редуктора);2,2-100*125-2;
;Б-10ММанжета;2.1-100х125-4;
;Манжета 2.2-100x125-1 Т-170;0;
;0;0;
;2.     Уплотнение торцевое 54010415ZS – 2шт.;54010415ZS;
;0;0;
;Стартер 423708;0;
;Стартер;42. 3708.000;
;Прокладка клап.крышки 700-40-2896    -20шт;700-40-2896;
;Провод в/в Т-170 10663СП;10663СП;
;Провод;10663СП (10664СП);
;ПРОВОД ВЫСОКОГО НАПРЯЖЕНИЯ;10663СП;
;Провод ;10663СП;
;блок клапанов (64-12-203СП);64-12-203СП;
;0;64-12-203СП;
;Рем.комплект  блока   клап.;64-12-200;
;0;700-34-2047;
;Шпонка;700-34-2047;
;Тележка гусеницы Т-170 20-21-107/108;20-21-107/108;
;Рама тележки болот. левая;48-21-111 (20-21-127);
;Рама тележки болот. правая;48-21-112 (20-21-126);
;Подшипник;3К20*34*24.3,3Е;
;Б-10МВтулка замыкающая ;24-22-4;
;Б-10МВтулка замыкающая ;24-22-4;
;втулка замыкающая;24-22-4;
;Полный р/кТРК-11Н-3 в сборе с дисками (чтз);0;
;Рессора (серийная);50-20-103СП;
;винт В.м8*8gx16/14H.019;0;
;шплинт;2х12.019;
;шплинт;2х12.019;
; Каток поддерживающий ;50-21-416СП ;
;Нож боковой на отвал(левый) ;80-52-59-02 ;
;Нож боковой на отвал(правый) ;80-52-60-2 ;
;Нож прямой на отвал ;80-52-61 ;
;Подшипник на вал катка ;954712К8 ;
;Стартер 2501.3708-20;МQ1;
;Генератор Г1000ВК 11.1 (1000Вт 28В);G1;
;опорный каток;0;
;Турбокомпрессор 122-07;122-1118010-07;
;Насос топливный ЯМЗ-236Б-2,3,4 высокого давления ТМ-120 ЯЗДА № 607.1111005;607.1111005;
;Нужны запчасти на Б-12 (2008 г.в.). Номеров к сожалению не знаю. Известно, что относятся к гидротрансформатору.Высылаю фото. По 1 шт., в комплекте с кольцами;0;
;0;0;
;0;0;
;Патрубки радиатора Т-130/170 (красные);0;
;Комплект прокладок на двиг.Д160, Д180;0;
;Поршневая гр. Д-160 (поршк-т) 150 мм (Костр)(Г+П);160-01-1000101 ;
;Нож Б-10 средний 70-52-13/067.55.11.004-06 (6отв);0;
;Уплотнение металл.;54010415ZS;
;Крышка;64-19-111СП;
;Элемент В/Ф;238Н-1109080;
;Фильтр масляный (сетка);0;
;Опорв;ДЗ-27С-01-015;
;42314 КМ Подшипник;42314КМ;
;СВЕЧИ М8Т;М8Т;
;Лента 18360-01;18360-01;
;700-34-2047 Шпонка;700-34-2047;
;700-40-4092 Прокладка;700-40-4092;
;966.3701 Генератор 28В;966.3701;
;Ремкомплект редуктора бортового;0;
;Вал ведущий ДЗ-98А.10.04.188;0;
;Вал средний (КПП) ДЗ-98.10.05.051 ДЗ-98 Автогрейдер;0;
;Диск тормозной ДЗ-94.0201.067;0;
;Диск тормозной ДЗ-95А.0201.921;0;
;Кольцо 195-200-36-2-2 18829/9833 ДЗ-98В.1;0;
;Манжета 1-50x70-1 ГОСТ 8752-79;0;
;Манжета 2.2-100x125-4 Т-170;0;
;Манжета 2.2-90x120-2 Т-170;0;
;Манжета дифференциала 70X92x12x16;0;
;Муфта включения пускового двигателя ПД-23 72118 Т-170;72118;
;Насос масляный 236-1011014-ВЗ;236-1011014-ВЗ;
;Нож боковой автогрейдера ДЗ-98.23.01.090;0;
;Нож отвала 1800x1190x250 ДЗ-98;0;
;Нож средний на автогрейдер Б.23.01.011 ДЗ-98;0;
;Подшипник 7313 333 65x140x33 ДЗ-98;0;
;Подшипник выжимной 46118 Т-170;46118;
;Радиатор 130У.13.010-0 Т-170;130У.13.010-0;
;Ремкомплект гидроцилиндра отвала 18-26-270 Т-130,Т-170;0;
;Ремкомплект колеса натяжного Т-130/Т-170;0;
;Упор 64-13-140 Т-170;64-13-140;
;Гусеница 50-22-9СП/24-22-1СП серийная 5 кат. (Т-130/170);0;
;ПОДШИПНИК;228А;
;ПОДШИПНИК;70-42314КМ;
;ПОДШИПНИК;70-42415КМ;
;ПОДШИПНИК;70-42612КМ;
;ТКР 11 Н3;0;
;бендикс в сборе;0;
;муфта;18-14-126;
;вал карданный (малый) ;18-14-77;
;прибор для проверок форсунок;КИ-562;
;указатель температуры водяной;0;
;генератор;0;
;0;а4110000-01СП;
;0;24-21-171СП;
;конус;0;
;бак топливный;0;
;Нож боковой автогрейдера ДЗ-98.23.01.090;0;
;Нож средний на автогрейдер Б.23.01.011 ДЗ-98;0;
;Бокорез левый УРБ-10М.01.Я Т-170;УРБ-10М.01.Я;
;Болт башмачный М20х1,5х62.019 Т-170;М20х1,5х62.019;
;Болт с гайкой башмачные М20х1,75 700-28-251 Т-170; М20х1,75 700-28-251;
;Болт с гайкой башмачный М20х1,5 30326-1;М20х1,5 30326-1;
;Мотор гидравлический планетарный МПГ-160 ;МПГ-160 ;
;Болт ДЗ-98.10.04.165 автогрейдер ДЗ-98;0;
;Кольцо 150-160-58-2-2;0;
;Манжета раздаточной коробки 1-90x120-48752;0;
;Манжета 1.2-90x120-1 ГОСТ 8752-79;0;
;Подшипник 6-313 8338 ДЗ-98;0;
;Шайба ДЗ-98.10.04.032-01 автогрейдер ДЗ-98;0;
;Кольцо 180-190-58-2-2 ГОСТ 18829-73/ГОСТ 9833-73;0;
;Крышка ДЗ-98.10.04.173-01 автогрейдер ДЗ-98;0;
;Сухарик ДЗ-95Б.04.071 ДЗ-98 Автогрейдер;0;
;Муфта Д395В.10.04.033 ДЗ-98;0;
;Муфта Д395Б.04.013-1 ДЗ-98;0;
;Пружина ДЗ-98.10.04.062 ДЗ-98;0;
;Фиксатор ДЗ -95Б.04.014;0;
;Шестерня 1 передачи ДЗ-95Б04-007 к Автогрейдеру ДЗ-98;0;
;Шестерня второй передачи Д395Б.04.008 ДЗ-98;0;
;Шестерня 3-й передачи КПП ДЗ-98.10.04.166 Автогрейдера ДЗ-98;0;
;Манжета 1-80x105-1 8752 ДЗ-98 Автогрейдер ГОСТ 8752-79;0;
;Манжета раздаточной коробки 1-90x120-48752;0;
;Палец резиновый ДЗ 95Б 01-121;0;
;Манжета 1-50x70-1 ГОСТ 8752-79;0;
;Фланец ДЗ 95В.62.00.060;0;
;Кольцо 070x080x58 ГОСТ 9833-73;0;
;Кольцо резиновое 170x180x58-2-2 ГОСТ 9833-73;0;
;Диск тормозной Д395Б.0201.183 ДЗ;0;
;Кольцо 195-200-36-2-2 18829/9833 ДЗ-98В.1;0;
;Диск тормозной ДЗ-94.0201.067;0;
;Диск тормозной ДЗ-95А.0201.921;0;
;Пружина ДЗ-98Б62.00.059;0;
;Диск тормозной ДЗ- 95А.0201.181 Автогрейдер ДЗ- 98;0;
;Штифт Д395-02.01.180 ДЗ-98;0;
;Втулка ведущая Д395А-02.01.205 ДЗ-98;0;
;Болт ДЗ-94.0201.065 автогрейдер ДЗ-98;0;
;Манжета 1,2-75x100-1 ГОСТ 8752-79;0;
;Гайка M12-6H.5(S 18) ГОСТ 5915-70;0;
;Планка ДЗ-98В 1.62.00.076 ДЗ-98;0;
;Крышка оси баллансира ДЗ94.0202.004 ДЗ-98;0;
;Гайка ДЗ94.0202.005 балансира автогрейдера ДЗ-98;0;
;Шайба стопорная Д394.0202.014 балансира автогрейдера ДЗ-98;0;
;Сухарь Д395А.0202.079 балансира автогрейдера ДЗ-98;0;
;Шайба упорная ДЗ94.0202.015 балансира автогрейдера ДЗ-98;0;
;Втулка неподвижная ДЗ94.0202.016 балансира автогрейдера ДЗ-98;0;
;Втулка ПА-010.01.00.001-01 балансира автогрейдера ДЗ-98;0;
;Лента СП-410-10-10 балансира автогрейдера ДЗ-98 ГОСТ 6308-71;0;
;Втулка ПА-010.01.00.001 балансира авто грейдера ДЗ-98;0;
;Лента балансира автогрейдера СП-590-12-12 ДЗ-98 ГОСТ 6308-71;0;
;Кольцо резиновое 018-022-25 ГОСТ 9833-73;0;
;Подшипник 92317 8328 85x180x41ДЗ-98;0;
;Паронит ПМБ-0,8мм 1000x1500;0;
;Паронит ПОН 0,8 мм;0;
;Удлинитель Д395А-0402273 бортового редуктора автогрейдера ДЗ-98;0;
;Корпус муфты ДЗ-98.32.00.110 ДЗ-98;0;
;Фланец ДЗ-98.10.05.080;0;
;Кольцо 052-058-36-2-2;0;
;МУФТА ДЗ-95Б. 10.001;0;
;ШЕСТЕРНЯ Д395Б.04.039;0;
;ШЕСТЕРНЯ Д395Б.04.038;0;
;ШЕСТЕРНЯ ДЗ-95Б.04.047;0;
;МУФТА ДЗ-95Б. 10.001;0;
;Шайба упорная Д394-0202017 балансира автогрейдера ДЗ-98;0;
;Гидрораспределитель Р160-3/1-111 Т-170;160-3/1-111;
;Болт с гайкой башмачные М20х1,75 700-28-251 Т-170; М20х1,75 700-28-251;
;Насос дозатор НДМ-200 У600 (16);НДМ-200;
;Болт башмачный М20х1,5х62.019 Т-170;М20х1,5х62.019;
;Болт с гайкой башмачный М20х1,5 30326-1;М20х1,5 30326-1;
;Мотор гидравлический планетарный МПГ-160 ;МПГ-160 ;
;Бокорез левый УРБ-10М.01.Я Т-170;УРБ-10М.01.Я;
;3.Манжета 2.2-100х125-2-1шт;0;
;4.подшипник-118-1шт;0;
;рем.комплект (пол) гидрораспределителя;50-26-61;
;РТИ сервомеханизма;рти 50-15-118;
;РТИ механизма управления поворота;рти 50-13-5;
;щиток приборов к  Т-170;50-10-643сп;
;ГИЛЬЗА, ПОРШЕНЬ, КОЛЬЦА УПЛОТНИТЕЛЬНЫЕ D150 мм;0;
;ГОФР УПЛОТНЕНИЯ ВОДЯНОГО НАСОСА;700-40-2992;
;ЗАГЛУШКА ПОРШНЯ ПД-23;3159;
;КАРБЮРАТОР К-125;0;
;КЛАПАН ВПУСКНОЙ;14-02-33В;
;КЛАПАН ВЫПУСКНОЙ;14-02-32;
;КОЛЬЦА ПОРШНЕВЫЕ ПД СТД;03712СП;
;К-Т ПРОКЛАДОК ДВИГАТЕЛЯ Д-180;0;
;К-Т ПРОКЛАДОК ПОЛНЫЙ  ПД-23;0;
;МАНЖЕТА 22-22Х40-2;0;
;ПАЛЕЦ ПОРШНЕВОЙ Д-160;16-03-50;
;ПОДШИПНИК 304А;0;
;ПОРШЕНЬ П-23 Р-1;0;
;ПРОКЛАДКА ГБЦ П-23;40944СП;
;ПРОКЛАДКА ТКР 8,5;0;
;РЕМКОМПЛЕКТ ТНВД Д-180;0;
;РУКАВ (ПАТРУБОК СРЕДНИЙ) РЕЗИНОВЫЙ;42701;
;РУКАВ РЕЗИНОВЫЙ;46849;
;САЛЬНИК ПД-23;700-40-8611;
;САЛЬНИК ДЕКОМПРЕССОРА;40857СП;
;САЛЬНИК ПЕРЕДНИЙ КОЛЕНЧАТОГО ВАЛА 68х92;0;
;СВЕЧА М14;А11-3;
;СТАКАН ФОРСУНКИ;51-02-48;
;ТУРБОКОМПРЕССОР ТКР 8,5С;92.000-06;
;ШАЙБА СТОПОРНАЯ ГАЙКИ МАХОВИКА ПД-23;31100;
;ШАЙБА СТОПОРНАЯ ПД-23 (КОРПУС САЛЬНИКА);3176;
;ШАЙБА СТОПОРНАЯ ПД-23;31106;
;ШЕСТЕРНЯ БЕНДИКСА;17-76-22;
;ШПЛИНТ 4Х40;0;
;ШТУЦЕР;67143;
;ЭЛЕМЕНТ ФИЛЬТРУЮЩИЙ МАСЛЯНЫЙ Реготмас;635-06УХЛ-2;
;ЭЛЕМЕНТ ФИЛЬТРУЮЩИЙ ТОПЛИВНЫЙ ФТОТ;24.1117.030-01;
;Ремкомплект бортового редуктора;0;
;Подшипник;70-32417;
;Подшипник;70-32612;
;Подшипник;228;
;Подшипник 70-32612K1M;70-32612K1M;
;Манжета 2.2-100*125-2;2.2-100*125-2;
;Подшипник 70-32612К;70-32612К;
;Шпонка;700-34-2047;
;Каток однобортный КАТ-21-169 СП втулка;КАТ-21-169 СП;
;Каток двубортный КАТ-21-170 СП втулка;КАТ-21-170 СП;
;Болт башмачный+гайка;0;
;Подшипник;70-42415КМ;
;Подшипник;70-42612КМ;
;Корпус подшипника;24-19-31;
;Корпус подшипника;24-19-38;
;Фильтр воздушный;0;
;Кронштейн 24-08-100          - 2 шт.;24-08-100;
;Скоба 24-08-152СП             - 4 шт.;24-08-152СП;
;Прокладка 700-40-3137       - 4 шт.;700-40-3137;
;Втулка 24-08-5                    - 4 шт.;24-08-5;
;датчик аварийного давления КПП (М111-В), ;М111-В;
;датчик аварийного давления гидротрансформатора (ММ 126)  на коробке передач;ММ 126;
;реле аварийного давления КПП на Б-10М (751.377720А, 10А, 24 V).;751.377720А;
;Радиатор с рамой;64-08-270сп;
;Клапан;65-09-35-01;
;Щиток управления ;64-10-540сп;
;Вал-шестерня;64-12-79;
;Главная передача с борт.фрикционами;24-16-1-01сп;
;Тормоза;62-18-1сп;
;Каток;24-21-169сп;
;Гусеница(чтз);24-22-1сп;
;Серийный номер 44142(164636) 2011 года);0;
;Башмачные болты (на каждую ленту цепи);0;
;Болты башмачные (на каждую ленту цепи);0;
;чека пружинная;50-50-62;
;палец;50-50-62;
;Гусеница с шириной башмака 500 мм к 6-катковым тележкам на бульдозер Б-10М 50-22-4СП - 2 шт.;50-22-4СП;
;Каток поддерживающий на бульдозер Б-10М  - 4 шт.;50-21-416СП;
;Радиатор водяной на бульдозер Б-10М - 1 шт.;130У.13.010-1СП;
;Гусеница в сборе Ходовая часть, 55 башмаков, ширина башмака 680мм, шарнир сухой, тип замыкания палец-конус;748-22-101Б;
;Вал передний Установка электромашин;749-50-188;
;Замок двери левый Кабина трактора;748-59-109ГЧ;
;Замок двери Кабина трактора ДЭТ-250;748-59-сб.120;
; Турбокомпрессор ТКР-111Н-3;92.000-06;
;Кольцо поршневое компрессионное;3350;
;Кольцо поршневое маслосъемное;3351;
;Фильтр-патрон;А41.10.00-02СП;
;Стартер тропического исполнения;2517.3708000;
;Вкладыш коренного подшипника верхний А23.01-10312-А-01 ЧТЗ;А23.01-10312-А-01;
;Вкладыш коренного подшипника нижний А23.01-10313-А ЧТЗ;А23.01-10313-А;
;Вкладыш шатунного подшипника А23.01-100.009-01 ЧТЗ;А23.01-100.009-01;
;Гидроцилиндр отвала Т-170,Т-130;Т-170,Т130;
;Гильза цилиндра 01466-2-01 ЧТЗ;01466-2-01;
;Каток однобортный Т-170-21-001-01СБ;Т-170-21-001-01СБ;
;Колесо направляющее 21.31.001;21.31.001;
;Комплект поршневых колец нормального размера 51-03-130СП ЧТЗ;51-03-130СП;
;Полукольцо упорное А23.01-13701-А;А23.01-13701-А;
;Поршень с шатуном 17-03-104СП ЧТЗ;17-03-104СП;
;Радиатор масляный 21.07.019-1А;21.07.019-1А;
;Турбокомпрессор ТКР 11Н3В ЧТЗ;ТКР 11Н3В;
;0;0;
;Каток поддерживающий;Кат-21-416СП;
;Сегмент;Кат-19-201;
;ВКЛАДЫШ ШАТУН.К-Т;А23-01-54-130СП;
;ВКЛАДЫШ ШАТУН.К-Т;А2301100160СБН1;
;ВКЛАДЫШ РЕМОНТ.К-Т;А2301100160СБР1;
;ВКЛАДЫШ РЕМОНТ.К-Т;А2301100160СБР2;
;ВКЛАДЫШ ШАТУН.К-Т;А2301100160СБР3;
;ВКЛАДЫШ ШАТУН.К-Т;А2301100160СБР4;
;ВКЛАДЫШ КОРЕНН.К-Т;А2301103160СБН1;
;ВКЛАДЫШ РЕМОНТ.К-Т;А2301103160СБР2;
;ВКЛАДЫШ КОРЕНН К-Т;А2301103160СБР4;
;Подшипник 70-42314     -2шт.;0;
;Комплект болтов на крышку бортового редуктора  (1 комплект);0;
;Корпус подшипника шестерни ведущей;24-19-31;
;Корпус подшипника шестерни двойной <130>;24-19-38;
;Муфта;18-14-126;
;Р/к гидроцилиндра отвала <Т-130/170>;18-26-270 РК;
;Р/к гидроцилиндра отвала <Т-130/170>;50-26-570 РК;
;Р/к гидроцилиндра рыхлителя/перекоса <Т-130/170>;01-23-101 РК;
;Трубка водяная ГБЦ;02.218;
;Шестерня <бендикса>;17-76-22;
;Гусеница в сборе Ходовая часть, 55 башмаков, ширина башмака 680мм, шарнир сухой, тип замыкания палец-конус;748-22-101Б;
;Вал передний Установка электромашин;749-50-188;
;Замок двери левый Кабина трактора;748-59-109ГЧ;
;Замок двери Кабина трактора ДЭТ-250;748-59-сб.120;
;Каток однобортный, нижний Т-10;0;
;Каток двубортный  нижний Т-10;0;
;Магнето ПД-23 ;0;
;Насос НШ-100 (левый);0;
;Муфта сцепления в сборе для Т-130 ;0;
;Вкладыш коренного подшипника верхний А23.01-10312-А-01 ЧТЗ;А23.01-10312-А-01;
;Вкладыш коренного подшипника нижний А23.01-10313-А ЧТЗ;А23.01-10313-А;
;Вкладыш шатунного подшипника А23.01-100.009-01 ЧТЗ;А23.01-100.009-01;
;Гидроцилиндр отвала Т-170,Т-130;Т-170,Т130;
;Гильза цилиндра 01466-2-01 ЧТЗ;01466-2-01;
;Каток однобортный Т-170-21-001-01СБ;Т-170-21-001-01СБ;
;Колесо направляющее 21.31.001;21.31.001;
;Комплект поршневых колец нормального размера 51-03-130СП ЧТЗ;51-03-130СП;
;Полукольцо упорное А23.01-13701-А;А23.01-13701-А;
;Поршень с шатуном 17-03-104СП ЧТЗ;17-03-104СП;
;Радиатор масляный 21.07.019-1А;21.07.019-1А;
;Турбокомпрессор ТКР 11Н3В ЧТЗ;ТКР 11Н3В;
;0;0;
;Башмак (Б-10 МБ);20-22-4;
;Болт крепления опорного катка 20х1.5 (Б-10 МБ);0;
;Болт М20х1,5х62 (ДЗ-110Б);ГОСТ 11674-75, У 14-176-104-90 ;
;Бортовой редуктор левый (ДЗ-110Б);24-19-115СП;
;Бортовой редуктор правый (ДЗ-110Б);24-19-116СП;
;Гайка М20х1.5  (ДЗ-110Б);30326, ГОСТ 11674-75, ТУ 14-176-104-90;
;Генератор (Б-10 МБ);7006.3701.000;
;Гидроцилиндр ножа (ДЗ-110Б);18-26-270СП;
;Гусеница болотная (Б-10 МБ);20-22-3СП;
;Датчик давления масла со шлангом (ДЗ-110Б);0;
;Датчик температуры механический (ДЗ-110Б);0;
;Карбюратор (ДЗ-110Б);11311.07011;
;Каток двубортный (ДЗ-110Б);24-21-170-СП;
;Каток однобортный (ДЗ-110Б);24-21-169СП;
;Клапан натяжника гусеницы (Б-10 МБ);0;
;Колесо ведущее (ДЗ-110Б);50-19-19;
;Комплект подшипников бортового редуктора (ДЗ-110Б);0;
;Комплект стёкол на кабину (ДЗ-110Б);0;
;Комплект стёкол на кабину (стеклопакеты) Б-10 МБ;0;
;Крышка радиатора (Б-10 МБ);0;
;Магнетто М 149-А (ДЗ-110Б);М149А-3728000-02;
;НШ - 100 (Б-10 МБ);0;
;НШ - 32У-2-Л-0303001В (Б-10 МБ);0;
;Поддерживающий каток в сборе с кранштейном (Б-10 МБ);50-21-416СП;
;Подшипник (ДЗ-110Б);46120;
;Предпусковой подогреватель ПЖД (Б-10 МБ);ПЖД-30;
;РВД (гидроцилиндр ножа) рукав D16 (Б-10 МБ);Н.036.85.070;
;Редуктор бортовой левый(Б-10 МБ);20-19-4СП;
;Редуктор бортовой правый (Б-10 МБ);20-19-5СП;
;Рем. комплект направляющего колеса (Б-10 МБ);0;
;Рем. комплект прокладок двиг. Д-180 (Б-10 МБ);0;
;Рем. комплект гидроцилиндра ножа (Б-10 МБ);0;
;Ремень вентелятора 11-16х11-1650 (ДЗ-110Б);0;
;Ремень генератора 11-12,5х8х1090 (ДЗ-110Б);0;
;Ремкомплект прокладок двигателя (ДЗ-110Б);0;
;Ремкомплект прокладок пускового двигателя (ДЗ-110Б);0;
;Ремкомплект водяного насоса (ДЗ-110Б);0;
;Ремкомплект гидроцилиндра ножа (ДЗ-110Б);0;
;Ремкомплект гидроусилителя сцепления (ДЗ-110Б);для24-15-118;
;Ремкомплект сервомеханизма сцепления (Б-10 МБ);24-15-118;
;Рессора (ДЗ-110Б);20-20-112СП;
;Сердцевина радиатора (Б-10 МБ);130 У.13.020 Г;
;Стартер пускача (Б-10 МБ);0;
;Тормозная лента (ДЗ-110Б);18360СП;
;Турбокомпрессор ТКР-11Н-3 (ДЗ-110Б);92.000;
;Фильтр топливный ФТ-150А (ДЗ-110Б);24.1117.030-01;
;Фильтр масленный (ДЗ-110Б);50-26-490СП;
;Фильтр воздушный (ДЗ-110Б);54-05-215СП;
;Фильтр гидросистемы (Б-10 МБ);50-26-394СП;
;Фланец НШ - 100 (Б-10 МБ);0;
;Цилиндр натяжения гусеницы (Б-10 МБ);0;
;0;0;
;Болт;700-28-2098;
;Болт;28558;
;Болт;48431;
;Болт;м-1225.88.45.019;
;Болт башмачный с гайкой;0;
;Болт крепления гидробака  24х3.0х65;0;
;Болт м16х35;28431;
;Бортовая передача в сборе комплект;0;
;Вал;50-14-23;
;Гайка;700-30-2017;
;Генератор 12в.;7006.3701 000;
;Гидроцилиндр ножа (ДЗ-110Б);18-26-270СП;
;Датчик температуры механический с указателем;0;
;Звено ленты гусеницы в комплекте в сборе без башмаков;0;
;Карбюратор ПД 23 К125Л;0;
;Каток двубортный (ДЗ-110Б);24-21-170-СП;
;Каток однобортный (ДЗ-110Б);24-21-169СП;
;Кольцо (топл. /помпы);46764;
;Кольцо;46587;
;Кольцо;24-19-50;
;Кольцо;140-150-58-2-2;
;Кольцо ;40843/2;
;Кольцо ;21363;
;Корпус подшипника;24-19-31;
;Лента тормозная в сборе;18360-01сп;
;Магнето ПД23;М-149А;
;Муфта;50-14-26;
;Отопитель ПЛАНАР 44Д-24 (ТГМ);0;
;Палец соединительный гусеницы Ф 43 дл. 300мм;0;
;Пластина;700-31-2352;
;Пластина;700-31-2262;
;Подшипник;70-42612К;
;Подшипник;70-42314;
;Подшипник;70-42415;
;Подшипник;70-12315;
;Подшипник;2224км;
;Подшипник;228;
;Подшипник;2228;
;Прокладка;700-40-4092;
;Прокладка;700-40-3047;
;Прокладка ГБЦ  ПД-23;700-40-20006 сп;
;Прокладка клапанной крышки;700-40-2896;
;Прокладка;700-40-2636;
;Прокладка бачка радиатора;0;
;Прокладка коллектора ПД-23;700-40-2049;
;Рем. комплект водяной помпы в сб.;0;
;Рем. комлект гидрораспределителя;Р160-3/1 111;
;Рем. комлект натяжного колеса;1409.3309;
;Реле на  ПЖД-8 г  ИПЯМ-421413.001 (6 ножек) ГАЗ -3284;ЗИ-2401;
;Сальник;700-40-4866сп;
;Сальник;46709;
;Свеча зажигания ПД-23 Ф 18;0;
;Сердцевина радиатора Т-130;130у.13.020т;
;Сигнал 12в.;С 314 Э;
;Стартер ПД-23;42.3708000;
;Стартер на двигатель ;ПД-10у ст352-3708-1;
;Трубка;2218;
;Хомут в сборе пд-23;17-73-127сп;
;Цилиндр (натяжник);50-21-134сп;
;Шайба гровер  ф20 от 65 г 09;0;
;Шланг РВД  25х3000 кл50 (НШ-100 - распределитель);0;
;Шпилька+ гайка+сухарь крепления ведущего колеса к ступице;0;
;0;0;
;Болт;М10Х25.58.019;
;Генератор ;5201.3771 -10;
;Каток двубортный (ДЗ-110Б);24-21-170-СП;
;Каток однобортный (ДЗ-110Б);24-21-169СП;
;Кольцо;140-150-58-2-2;
;Кольца поршневые ;СТ - 51- 03 - 122СП;
;Кольцо;700-40-2733;
;Кольцо уплотнительное;46766;
;Коренные вкладыши ;А23.01 - 103 - 160 сбС;
;Кран;ПП3-2-0;
;Лента тормозная в сборе;18360-01сп;
;Магнето ;М 149А1- 3728000;
;Механизм натяжения;50-21-134СП;
;Планка;50-19-129;
;Пластина;700-31-2262;
;Пластина стопорная;700-31-2581;
;Подшипник;2224км;
;Подшипник;213;
;Подшипник;228А;
;Подшипник;70-2228КМ;
;Подшипник;70-32417М;
;Подшипник;70-32612К;
;Поршень;51-03 - 40 - 01;
;Провод;10664СП;
;Провод;10663СП;
;Прокладка;700-40-2195;
;Прокладка;700-40-6517;
;Ремень вентелятора 11-16х11-1650 (ДЗ-110Б);0;
;Ремень генератора;11- 12.5*9*1090;
;Рукав;42701;
;Свеча зажигания ;А11-3;
;Термостат;ТС107- 1306100-01;
;Топливный фильтр тонкой очистки;51- 70 - 153СП;
;Установка маслозакачивающего насоса МЗН-5;65- 09-150-01П6;
;Фильтр- патрон ;А41.10.000 - 02 или ПФ  - 207.1 - 01 ;
;Фильтр патрон предохранитель ;ФП 201.1 или А41.20,000 - 01;
;Фильтрующий элемент ;ЭФМ - 110-1 ;
;Шайба;700-31-2550;
;Шатун дизеля комплект ;51- 03- 112СП;
;Шатунные вкладыши ;А23.01 - 100 - 160 сбС;
;Элемент фильтрующий;50-26-490СП;
;выс.860мм, длин.740, шир.860;64-19-21СП;
;Подогреватель жидк.предпуск. ПЖД-30Е 30 кВт 24 В дизель;0;
;Гусеница Б-12 (серийная);1 комплект;
;Кольцо 038-046-46-2-2 Т-170;038-046-46-2-2;
;ПРОВОД ВЫСОКОГО НАПРЯЖЕНИЯ;10664СП;
;Провод ;10664СП;
;Башмак;50-22-4;
;Корпус подшипника;24-19-38;
;Кронштейн;20-21-64;
;Стартер ;42.3708.000;
